…
We clean the missing values in the following manner:

-   Group data by City
-   Fill missing values downwards
-   Remove remaining missing values at the start

``` r
(data <- data |>
  group_by(City) |>
  fill(AQI, .direction = "down") |>
  filter(!is.na(AQI)))
```

    ## # A tibble: 9,716 × 3
    ## # Groups:   City [5]
    ##    City      Date         AQI
    ##    <chr>     <date>     <dbl>
    ##  1 Bengaluru 2015-03-21    91
    ##  2 Bengaluru 2015-03-22   120
    ##  3 Bengaluru 2015-03-23   154
    ##  4 Bengaluru 2015-03-24   119
    ##  5 Bengaluru 2015-03-25   232
    ##  6 Bengaluru 2015-03-26   132
    ##  7 Bengaluru 2015-03-27   123
    ##  8 Bengaluru 2015-03-28   152
    ##  9 Bengaluru 2015-03-29   143
    ## 10 Bengaluru 2015-03-30    80
    ## # … with 9,706 more rows
…
